5910
2672
3488
2615
9809
8310
7337
3170
9551
7587
3623
6484
3390
5649
9601
7099
3582
9078
8797
8017
5672
4747
3012
2922
8840
3441
4543
6171
1542
5657
5789
3460
9844
217
9192
306
8037
652
9636
6111
9484
9238
3968
3331
8829
954
6420
1551
4436
9798
9243
7248
5419
193
9954
5486
1120
4453
2488
7184
4108
1915
8844
1139
8364
7852
9975
8195
1211
9318
9155
3450
861
9254
4119
3705
1542
76
6150
6691
94
9193
5759
4517
263
7844
3178
1365
5161
6162
6979
7881
1373
5517
8748
4666
2095
3916
5542
8867
4160
453
1042
5911
1872
2694
7616
1337
4908
6240
5605
5844
5508
9257
8214
9862
8346
5179
9633
5470
8030
4938
3903
4893
2638
7237
9118
9923
5237
6177
3639
9541
1574
7563
7275
3235
576
4327
5510
9640
7530
7967
8670
2374
7192
5198
6587
6668
4512
8629
8444
5067
3785
3026
7986
9547
1733
5949
4034
9803
2917
7730
5437
7157
770
8747
7412
8368
773
787
449
4935
2749
7762
7218
7784
8672
594
1358
9869
4271
4459
6959
8646
2960
7490
2830
3249
6580
3988
9853
6803
5903
3914
7649
4324
5198
4659
4952
1652
9690
4891
5049
4768
6445
1933
7154
6076
8775
7606
3577
1993
9903
3854
8817
4101
4900
1958
7121
9762
3418
9482
6162
9312
5603
9726
5959
70
6284
9305
6173
8153
1644
3588
6976
4066
1252
3012
8141
4364
6696
1963
770
586
2103
4530
734
7290
7968
5961
1347
7910
4718
4493
6041
5152
4925
6586
6795
4903
7123
1784
4451
3794
471
3260
2026
8051
9047
8017
828
9574
1040
3235
8352
1488
9364
1339
6435
1933
9795
9946
6452
4802
9694
4634
7619
1046
7046
8712
8236
1742
3751
8937
3507
1938
601
6303
7490
304
1223
8793
6256
7650
1675
2977
4441
6170
6674
9089
489
7265
6109
8554
8927
3993
3720
123
9356
381
8101
1339
9022
4042
9567
6174
5271
7336
9843
5918
5474
4166
1896
362
4062
8916
1468
7212
2698
1524
969
6064
805
7249
4612
3362
2123
5548
619
4370
2567
5485
1680
6394
8201
3510
7365
4288
8197
2069
7780
5062
718
8726
6874
8203
3163
4676
3099
5659
1387
9203
6068
2921
1065
4608
4776
6607
4028
9398
8475
863
2022
1589
2813
8966
9128
5542
8451
7287
8617
3529
6671
649
8066
7645
8127
4984
9650
9941
3755
546
4467
3400
627
401
4693
7172
6422
4144
4263
4608
2211
3328
9414
6668
7180
9536
2289
574
8158
8872
7393
860
4113
7424
8558
1339
3685
3239
8973
7912
1401
238
6251
7341
7857
7489
1887
5564
2861
8649
285
2437
6442
8643
3562
4558
7486
8726
6974
3251
203
856
5303
455
4466
2229
3557
2764
3986
5154
6936
8466
1664
5486
1238
6174
4908
9787
7199
3606
8622
9338
8209
4260
1565
7938
3664
7697
2336
7117
5526
7145
5742
9493
9212
6032
7165
1908
7107
9190
5066
5915
4916
1041
4619
5652
2652
4700
8196
6128
2840
7701
5377
9037
9803
7275
7128
1988
2868
7744
5283
9876
5382
5873
3091
1873
7187
3243
9910
795
7945
5912
8825
8025
5346
7852
7947
2946
9199
6005
6904
218
2175
9544
3886
9615
1340
9841
4684
2739
9964
4185
7719
1576
432
5933
850
8646
1894
6220
287
2705
7231
4711
2484
3682
9980
3125
5360
4926
8955
4326
8406
7932
9670
6830
9260
9757
2919
2254
7420
6366
7715
9900
1261
7957
891
8112
4204
2295
6302
6261
7271
9151
4988
3799
2928
742
1826
9223
8284
9591
8769
7296
4643
5981
1866
9401
7423
8955
9832
9571
30
4249
3234
3608
1135
4216
5784
6150
1697
1050
4911
1760
3372
7744
2371
2619
1215
9913
1570
7662
1198
221
2507
992
4672
1402
5147
193
2641
8439
543
734
3465
4962
9751
7008
2919
3874
2333
3659
6224
5196
7894
5065
8687
4816
8738
9589
6765
108
1273
2864
5194
9294
6548
7988
9984
4624
7233
9891
3525
3031
595
942
2792
340
97
4969
1106
3287
4970
1989
4521
1814
817
9164
2233
3086
7038
5523
2174
2559
5575
480
621
5382
9817
6841
5248
3362
9352
8842
6551
8320
1991
1771
3513
2933
8963
5268
4782
9396
9024
4079
1771
9644
6417
7748
7155
3758
7555
9157
4166
890
3729
7801
9252
8930
7507
7884
1781
1442
815
1228
3615
3751
4970
6328
9009
2408
2410
9595
5206
2001
35
3148
7531
3595
577
6131
9006
3710
6677
7656
8145
4385
2500
687
4617
4761
4554
7844
3325
7201
873
4833
9934
617
5201
7488
9621
2097
1287
9013
2984
2676
7214
5808
7072
4177
6113
834
6649
1121
2122
9104
89
6806
8641
240
5164
6157
4055
4549
9465
3646
1090
4907
6561
2919
3412
6735
861
1597
4736
9389
1206
3036
9189
6631
1541
2096
7772
8378
8125
1589
6102
5595
8650
4389
3337
4668
5739
2835
7103
5820
4023
3685
4049
1537
3530
3284
5277
6523
8884
3971
2354
6884
5787
8151
9216
8019
1620
7670
8823
5793
1462
4264
2317
3576
9285
6867
6620
6922
7666
499
3343
7705
5736
8638
2520
2497
7915
4110
5358
120
8881
5100
8607
4888
5014
8991
7628
3090
9410
6095
4540
6369
124
7667
3909
6769
2818
4347
7071
9390
4030
7487
2236
4631
7585
4363
8545
4430
8040
439
3480
6547
557
1545
1514
5916
9251
6517
9789
6568
9945
9811
1993
7036
1500
921
6422
238
527
9403
5633
56
2033
8216
8541
4993
1655
6500
296
8160
7853
4384
2679
2527
3846
2570
3062
5229
1656
528
6584
5639
6254
992
9838
1985
1963
826
2211
5003
1060
4577
5524
2552
3683
7834
915
4697
4912
2838
6918
8468
9567
7761
5758
5105
6561
5037
108
8709
7933
4913
4656
4090
7182
539
514
6471
4502
6527
7139
6338
1230
1237
8205
9810
9703
9843
5561
1932
3301
6173
6405
2599
7638
2826
40
6274
5246
2968
2158
7686
9270
7019
3012
1168
3611
3675
585
4934
5819
1997
2836
899
3149
7013
5065
6069
1689
6298
1100
4381
2514
2073
2871
183
8902
967
9191
6617
6127
9688
9933
6531
3298
3386
3768
3500
1622
3305
3684
9858
7063
2287
4934
8503
3955
400
6439
1710
8737
6338
5074
6159
4199
5728
6516
8960
5644
4567
4196
2203
8885
8999
5369
7339
3352
5212
6247
258
187
3077
6114
4240
1296
3522
6023
5573
7167
1147
5046
5466
6839
3944
3880
2100
8600
70
5562
6519
7387
5041
3504
8044
7698
4212
1115
894
6558
7301
9119
2763
5085
1552
5609
3306
9530
6447
9943
7191
5063
2793
2763
2057
3114
4166
5209
4565
8134
3049
8268
1795
6850
8259
455
3922
4715
1872
7021
7794
751
683
4922
9840
6296
8206
3657
7284
8349
5926
1595
9450
2936
5500
9366
2090
1483
3471
4278
1951
3397
7685
7139
4328
7214
7883
4166
2579
259
7888
229
5952
7018
3405
4066
4171
8777
2168
8178
6407
6260
6717
9791
5349
8871
7656
9358
442
5255
202
2337
3054
7276
5018
4617
8459
9015
311
8498
6434
2314
6334
2739
9703
6090
2064
7959
3662
8382
5683
2248
3824
8028
646
3165
2085
7626
1064
2952
7669
9876
998
2375
1245
2067
4786
6356
9919
1719
7
1502
5181
3148
5834
7880
6989
6352
6545
644
5425
8425
4789
2378
8192
9318
2651
8222
6257
5353
7441
4670
8366
1903
5466
5752
1162
3886
9635
3446
5304
8386
1759
5957
462
5989
6816
5772
4246
640
5029
8685
5200
1203
5231
2543
1130
5236
2779
5125
5030
4544
7963
2574
3569
5226
6000
1175
6904
3954
8705
7071
707
9965
1532
8238
4747
6239
5882
603
4605
8166
7028
332
3888
6642
5607
3744
2427
3499
4794
8209
5448
7625
3978
691
1545
8068
4510
3566
1716
9972
6030
4086
8533
9862
9609
6403
8672
2240
1336
6758
3300
2476
2797
3703
2490
46
667
1851
961
4893
4958
3765
6081
9717
4099
3168
7786
5715
6685
3536
3315
6389
1738
9005
3515
6727
1606
3260
2150
9087
528
7022
4974
6350
9420
8465
71
5627
9174
8723
3541
8050
3710
5321
7517
8286
3534
4326
1068
2145
6018
5362
9103
4799
2786
291
8622
5243
4427
7063
9834
880
5659
3145
2880
8813
3769
5553
9578
2377
7490
835
5721
8799
1887
2592
8063
7066
9861
9466
1150
7387
7192
6470
7011
3729
6829
4624
7359
8763
3764
7459
3735
7693
4721
9507
1547
9866
4187
6868
8030
2245
5582
8534
4396
8175
7553
844
4009
9597
2745
2330
2679
3430
892
7985
56
2797
6739
2041
5628
8634
5954
2344
8210
4943
5534
4652
4133
5043
1729
6997
3154
7661
1131
6558
6719
2655
1262
9565
7819
8148
131
75
5946
5572
9677
2417
9508
8222
9744
5350
5117
5417
3738
1312
932
2588
1274
6820
9403
1415
6128
1395
7785
6396
5239
2666
8546
210
361
6515
7022
2173
761
3900
7030
3385
7902
7614
161
832
6971
1836
2966
9444
9765
5001
23
8600
7727
7779
3168
8054
3745
1024
5258
2196
7080
6072
8488
6347
5752
5096
1413
1655
6548
9004
7061
2565
207
4581
6474
837
7593
4423
3421
7134
7367
7278
9078
125
4908
3105
2161
428
2000
8543
2372
1105
1812
9446
8339
8738
5426
2284
5673
5343
7065
8373
20
4864
7127
7771
2475
8205
8118
443
5600
2753
5103
8459
3252
5755
6357
8420
6589
4765
6789
3500
3928
7745
835
9216
9505
3899
1098
4882
7006
5663
4101
2672
2587
626
2459
1204
1716
8211
1820
2061
841
2871
2667
8206
994
2851
8147
3628
9696
1614
6365
6784
4612
6318
4286
7218
5437
3782
1943
2537
3768
574
9811
4572
7355
760
4236
5935
6244
2615
9469
8075
5539
2093
7090
7142
9416
3941
3640
331
1751
8051
1164
3739
4433
4732
9934
5614
4509
5637
6110
7208
9429
2833
269
9351
8329
9311
4728
7452
3068
4386
4071
5802
2139
8570
975
7506
1084
7162
1494
6190
1980
9896
1323
1027
6339
3303
3049
1532
144
6049
4127
7809
4155
3034
9919
5703
6199
9860
5865
9692
8010
7793
4773
3956
9260
3323
7051
7636
5048
9344
1883
8406
1509
1939
423
4826
9242
2217
2636
4424
3384
5352
1023
59
7654
5959
6347
6209
55
1246
6508
2543
2862
2411
3175
7338
6791
7905
2293
3584
3752
7251
2549
4861
9287
7168
1423
4769
8819
4240
4121
6755
4059
8827
9018
2769
2226
5862
1981
3031
5622
2726
3027
6395
361
6668
6891
4764
1165
1999
3058
5017
647
7519
1444
2282
5176
6791
3389
5530
9398
3702
8950
6403
2676
342
6090
3157
3807
9154
4491
6306
6220
3657
7592
6472
448
6813
4344
6448
2519
3645
2110
1302
5300
2664
9850
2323
4826
2739
4032
9907
8940
319
6851
6624
4189
8276
9897
8029
5678
6318
547
5608
1196
8074
7896
1161
8936
3890
2345
1160
3028
1430
1947
8258
7959
6728
773
3056
1706
1343
1663
1112
8363
6725
1262
4540
8006
6338
6585
7542
2064
2147
9011
9519
2159
9804
5805
2675
4459
9881
1356
6411
626
9895
1613
6461
7881
7221
1681
3247
1505
3726
5234
9004
7277
6217
8966
837
3460
252
3644
1319
835
6430
3471
4756
5411
5641
4648
4603
8460
5107
8154
1954
1176
480
783
3883
428
5570
9870
5157
50
7079
4304
468
2039
2570
2236
1901
7962
4097
5334
7981
4335
8524
7159
6825
7942
7052
6802
1705
8904
4646
9436
5455
5208
4847
7739
7700
323
8987
7962
6089
5565
5812
9683
1393
852
2169
322
5925
5914
2459
5711
6250
1793
1708
6620
3701
6779
7335
9644
7684
5833
7486
6776
8517
2993
1350
3606
7502
7363
6286
7394
6791
3468
7074
549
4386
8953
4787
5227
4991
1057
2320
4607
3242
2266
415
4160
6513
7014
248
654
4686
9962
6849
9368
3931
224
6043
5897
8006
8030
5586
6353
3127
7997
9810
3760
6644
2926
2955
6391
1461
5083
8224
3259
1509
4596
3304
8822
1358
6739
5930
972
3402
4594
8927
1703
3610
4314
8826
1054
73
8274
2008
4908
86
1735
9916
2382
7472
2557
2764
8096
2226
1921
8461
2347
1608
2934
8816
1216
145
8749
8997
345
6997
5573
796
3825
670
846
7956
8637
4098
7937
850
866
6261
3971
3325
8160
7593
1156
8794
3598
7249
8038
8521
7599
158
3356
1189
8698
1922
3583
3676
8173
3773
2857
7560
1753
3992
8591
4110
5680
2422
1345
7936
8953
7928
390
6984
1863
3
5400
4122
8928
1950
9074
9344
9636
6583
2190
8825
567
3194
5958
6880
4632
8352
9947
4051
346
1795
983
2919
3731
8168
4172
6826
7973
2780
7113
1685
6501
8685
7540
3038
3721
8105
7340
6601
8361
5322
7067
563
6758
7184
2939
4772
6698
5363
930
607
8121
52
9206
4142
5126
9282
9941
4842
4384
5456
3166
130
6808
1444
3627
3621
651
9047
3098
5052
7666
4470
8450
9189
6508
1130
563
4963
4165
1079
7591
5436
2758
3750
9648
5060
2270
1088
4682
7841
7600
5908
9156
9138
6636
9726
8366
2254
6706
6082
7760
7878
9328
3288
9816
2065
2237
3084
1072
2942
7146
7908
380
111
5905
3018
9285
5514
8219
2163
9268
1684
9618
855
3481
1533
2646
9538
1036
37
7098
3783
3222
6324
9177
5954
9428
1166
4758
7240
7789
1946
7340
4401
1478
1972
2032
2354
8235
5416
349
4720
1277
4888
1359
9523
433
2263
2135
7379
5644
3426
9319
89
6431
2289
7326
480
1687
6098
9154
2445
6917
6416
6698
8292
4175
277
9311
5976
3859
243
2168
2100
3941
9170
2627
5851
7706
8525
8623
1941
9784
1057
1298
5202
5040
1618
2428
9964
2435
2706
757
3446
7139
122
1226
793
8885
9084
3834
1644
879
6111
1228
9728
553
7345
5044
7569
3084
6254
6098
9428
102
4426
3447
574
7473
9587
1232
1323
1421
5153
2456
9291
6004
8016
1900
34
222
396
2330
4225
88
2921
5208
7079
864
8950
9065
3756
7324
5409
1699
9748
8044
7321
2800
5965
5362
9583
9641
9112
6933
9088
2154
7090
2158
8199
2105
8922
1861
9399
1361
3788
6203
2447
7583
2715
2277
9811
3017
44
2623
3094
3857
1530
9723
9367
4392
5212
3472
4826
3069
5689
2324
1440
4617
4604
8970
158
8666
3077
1865
7158
2262
5568
4748
2712
8148
9921
6725
4275
6527
3862
5479
5602
2824
5987
3001
4288
4624
1219
329
8013
1154
8964
2935
1142
8053
6992
6941
9117
9360
3861
7410
8077
4976
8858
7819
5227
4536
1834
9131
2217
7074
9549
1444
5092
4089
8290
2782
8519
2072
947
515
6880
7522
7635
1964
4950
170
286
4087
2012
1113
5796
613
1788
2839
853
2454
6452
3212
4775
8977
7251
8171
5088
6554
4227
9125
9320
9302
462
8452
2787
2813
8553
2064
4942
4555
1636
2655
4898
963
9699
6291
5615
6991
5568
9054
8595
8558
8478
2336
7053
6310
7655
9429
1421
1669
3993
1967
9890
5077
7048
1066
8847
6228
2541
1256
8882
1771
5001
6086
6978
8418
5267
2046
4880
9566
9327
8102
2925
5827
6719
7643
6312
8076
8461
2598
5486
7183
3712
2961
5944
3998
5671
7099
5665
3331
4337
3019
67
8451
9029
7471
2144
1690
4618
5685
1628
7766
3256
7777
5026
1062
6387
8433
2323
784
5158
7687
2138
6366
7297
277
168
3553
5048
3948
4611
7925
705
9987
5531
353
3969
6928
2973
3677
5585
4028
3049
1646
5429
1690
5146
3354
3559
5777
6145
4759
3142
414
5887
5795
646
8540
6140
4738
2231
5059
6139
869
4471
6782
6664
9135
9547
4176
4951
2928
7101
9768
6683
7567
7912
2178
8981
6647
4363
8086
7564
5064
3435
8258
611
9238
4149
5822
4669
5725
4500
649
324
7044
3270
6602
7525
5592
7167
6316
9973
8059
6854
6411
3939
4804
1201
6373
5466
9679
5282
7891
1830
8536
3927
1194
5471
5504
344
578
1926
8993
8194
8241
7698
9315
3059
2134
3459
3727
8795
540
768
6933
2368
5476
4315
5429
9973
3324
2210
693
91
3302
2592
2147
8322
4575
3276
3091
3186
5528
606
1943
3626
8034
3565
8000
474
4310
4505
4835
7986
6706
7753
9816
3436
353
5595
4956
1451
4552
8231
1991
9854
4653
3779
8288
4183
9612
527
3247
2653
1369
4407
9284
780
4835
6647
2289
8533
9778
3863
4593
6026
1720
2296
4875
4228
5186
423
889
9204
658
4128
8958
3749
928
8337
2403
2872
4122
1871
321
1404
8573
3526
9506
6543
2762
8322
6201
2642
2084
1124
9374
7114
1566
1493
6816
9401
3970
3388
8364
7678
6129
779
9221
4920
835
8067
9853
3752
6965
8435
6402
6251
4536
1993
3012
815
6625
2170
1668
7685
7158
477
3762
6646
4533
2451
6880
8274
6477
3079
5744
5211
7174
101
1842
797
8904
8159
8003
2248
6884
9579
2144
3906
4159
3467
3281
6450
3998
6516
3981
6703
3473
5029
2052
6940
5672
0
7508
1456
8886
3187
484
4134
7868
6997
6694
8916
4884
2770
6260
3167
5404
8751
4959
2450
3584
3345
1786
7053
7129
5384
6857
9867
7810
3806
187
2916
9283
1370
1013
2464
5592
5557
5930
3406
763
1610
9347
3688
5179
377
3043
5484
3457
7202
6035
1167
4774
8080
2397
9522
3310
4166
9150
4015
9029
3993
3206
403
6983
3689
2563
5851
7763
2197
4229
1086
6939
9934
2084
1179
5320
4324
9696
6568
4658
4866
6406
9627
2218
7506
3346
5051
7031
2097
3711
8882
9677
3566
9255
9802
6779
6973
61
2754
8446
3585
68
5310
3997
7622
4403
9382
7082
3956
9794
8836
924
9095
1876
6129
2429
2337
9903
3607
6783
2140
9509
155
1229
9978
6124
510
6073
4735
6442
9174
6188
4050
409
1316
399
7612
7897
4179
3128
7701
18
1451
4695
6974
466
1332
6305
3452
370
5876
1205
7518
405
2883
5338
6806
590
3841
1047
3220
8005
5098
8292
7033
6605
2153
3249
476
1033
8953
8354
6401
606
6313
1203
8034
308
7718
7417
6506
806
4194
8797
3965
1124
1030
5650
8030
7222
8250
4808
7083
1931
1684
5203
3746
146
4324
14
4029
7135
6047
934
1795
6261
3111
6761
3108
1730
5244
4318
8317
1272
5991
8463
8123
5246
5643
4678
5551
1369
5756
4184
3447
8714
4042
9602
8904
1175
2296
3727
4972
9067
9622
9670
5510
7439
728
8218
6926
9717
1928
8152
2356
6607
7028
1701
3305
4293
3404
6110
6325
8622
3238
4596
7297
8738
2131
217
9829
2680
9510
7547
5714
7790
9128
1578
3751
2830
6887
7123
8305
4290
7573
5426
6729
9871
4563
1578
9737
86
7858
6694
7818
2754
8157
9728
5263
7291
6954
381
7003
228
4825
7897
2568
3619
3727
9204
2191
5581
2148
2206
9581
6639
9122
5391
5565
7887
32
6906
248
9710
4204
5132
9405
5470
4354
3923
258
7385
1509
3683
1174
5913
4773
7168
7258
8064
5619
6039
8861
8439
9587
5377
8271
6423
6056
9350
1571
3471
221
5607
986
1497
865
2919
2619
8351
5655
4246
4834
1023
426
2885
6176
893
1742
1027
5654
4545
4258
4405
582
9546
3059
7076
3079
4711
457
215
5872
865
6839
6777
5356
9210
3268
7605
7126
1786
79
801
7852
4716
4328
2324
7561
9003
8638
1609
2583
6281
6952
2460
8239
1353
8544
3789
6521
4450
7789
9584
6735
3047
7616
6230
2364
1990
9395
6912
6077
1259
4404
9034
6815
4801
1241
6409
4716
1937
9467
7717
9186
4213
2333
8250
2568
7088
5607
6771
6759
6565
314
4023
7297
407
1234
2699
6556
2539
7766
9387
8304
728
9761
667
7860
9108
5246
5612
6242
9495
755
6570
1845
3856
8490
9228
5643
5701
3195
3641
7858
9038
2709
2211
1716
2850
5735
3201
1594
4153
4507
7616
7014
2600
425
8805
7499
2069
8508
3708
3035
1884
7321
8363
6557
7515
3665
8159
7394
8637
1915
6082
3753
5432
6740
7169
3144
3777
6041
773
249
5498
7954
1439
6366
7647
3784
6330
9532
4448
2693
9252
8355
1819
4990
9972
3395
2379
237
2988
766
5198
3419
8338
381
9818
8114
4898
6714
6584
2044
732
8494
6127
4164
5068
6073
4285
1341
7419
4794
4843
7474
2337
3219
4974
9155
7075
4582
9994
22
7615
7580
5133
3512
7205
9952
1437
1723
2071
380
2442
54
9253
9815
8982
5250
6784
9776
4473
1625
8033
7464
6327
9578
6312
5831
5069
7532
6266
8662
2198
2464
5912
8920
8403
3327
55
7517
4277
5805
1158
6914
922
1260
9442
7128
4621
2564
1518
1925
6120
4935
8470
3409
1118
9194
7002
1758
3538
1296
9969
6007
7980
1987
7146
6472
7722
984
5687
122
413
168
3149
1932
2589
4312
1311
1768
7062
8186
1913
8165
9152
2430
5349
7012
9038
8200
9063
6672
3390
8036
34
8630
7598
7348
276
9271
3483
8209
773
2017
1756
4700
2541
3128
2367
5548
3532
2588
5783
878
8697
973
5654
9281
1099
8363
6025
1667
4003
1598
6835
487
8057
2317
2473
8601
659
8999
8982
7461
7865
9186
8664
9789
1267
7855
3268
6051
6553
3105
3823
3929
1158
8552
5958
2614
1839
3034
1626
1257
4011
7582
7137
7008
605
968
2917
377
5691
6447
7458
3399
1932
249
1780
957
5265
6188
7647
2402
9089
9666
6261
518
8069
7686
101
2214
2214
1494
7719
7199
8675
3657
9504
7210
2097
2560
135
3328
3929
3258
9706
2470
2383
2794
6964
5181
1494
2705
3533
8611
6711
8283
9560
6734
1904
7273
6425
1242
3391
4251
8462
3401
3790
6158
1720
2392
7690
5079
243
2522
7684
4735
7674
7346
6730
5464
4314
3137
9577
2753
5908
2093
2446
4316
6538
3389
7411
8135
97
5154
8612
8842
4412
4513
3476
7371
2247
3388
3063
9918
7626
9165
3513
7736
2834
8208
5872
1713
3854
6836
5726
2057
5219
7447
9759
5222
6897
4781
8556
4282
5240
7256
8779
7174
7109
2814
7605
1684
4798
3166
74
2894
9397
8791
8289
5690
8426
9588
5278
1697
1712
8528
4132
2838
2132
4185
3797
9293
4219
6902
8592
3839
8621
5827
7313
9332
920
8938
8256
4885
7718
546
5756
940
1129
8523
4153
4832
2967
3004
5960
4743
3528
8209
1312
9067
8735
1230
239
20
9589
8946
7051
2519
9342
4162
5821
6065
9588
2173
9647
9647
5542
9984
2418
9235
5195
1942
1024
707
6173
3643
9751
5744
8579
6234
4191
4645
420
7648
562
1238
64
5204
2097
9784
9605
1347
5779
1508
6052
2539
468
4568
6731
7176
1001
2997
9528
8753
1830
1069
4099
123
3513
3192
7726
9399
4772
5506
7538
2806
1079
9533
778
1141
1825
7564
1403
5108
2899
8998
5940
4113
2512
1187
7086
4990
4290
7286
7388
7683
1638
2163
2657
1300
8553
5765
751
5794
2533
4904
2025
6052
9996
4135
5120
2574
2393
8464
5237
5305
870
4297
3153
9085
5511
2272
7159
7708
4844
521
9929
1936
218
6921
8140
2171
9496
7022
1237
2066
451
8687
4259
4241
5517
3075
2866
8475
1498
2312
8019
5031
5208
9276
7721
7828
1994
779
3256
4057
4506
3717
7712
3408
6013
63
5019
4810
2890
3347
1413
4452
6706
999
6028
1874
7420
46
6856
2700
2316
377
4414
5836
4776
6935
5505
7949
7683
7454
7159
327
2824
2987
1736
5326
7554
3120
2852
5191
4206
1229
9796
4143
285
8749
4089
2420
837
7988
9591
6069
9163
3496
8397
1575
1996
2761
1247
5267
1530
4316
5893
4570
7332
2847
2143
1815
3897
5654
9338
3329
6680
8535
7454
586
5984
6750
4713
2931
4164
6039
6238
7241
2445
7277
1995
9635
2885
1498
4306
4262
6717
3835
7161
3576
9440
6095
1473
7810
1981
7893
1328
8393
4864
3492
2923
7609
1451
4578
8222
5230
6535
6009
430
8204
8231
8430
9799
6101
5818
5971
1785
4214
4931
5746
78
6820
8192
4775
359
3667
9534
6845
2299
7531
1219
1122
9793
9056
2285
2672
9049
7882
7653
3346
1600
8313
3665
7893
8837
3215
6168
2491
3446
5916
6065
2799
3541
7511
7434
4104
6961
3054
9473
4214
6508
4434
9469
369
2073
5404
8042
5011
8699
1763
57
4325
2529
897
2214
7210
3743
3238
7913
3206
3535
5765
4933
7418
1076
90
7675
4452
1384
9696
8057
2119
7080
7610
7196
6186
6308
6438
4579
3126
9184
2746
5671
4251
2714
1839
7494
9243
3223
5158
2753
3067
774
6549
1741
1019
6316
2227
3480
3568
7872
3015
309
2555
271
350
7457
9944
3134
4598
9873
6275
7171
8075
8487
4293
9112
6483
2070
206
2557
5483
8626
2931
3887
8014
4792
5055
1272
5456
6383
8296
7779
9036
2269
8039
6463
9602
6680
6971
1906
7119
2872
4942
6391
7794
3999
4715
2816
9750
4518
6924
8150
4920
7287
4156
8559
9188
1173
5585
2571
155
3996
6194
8588
1694
3338
6740
3194
523
4811
3384
5240
9076
9507
4684
1277
7246
5738
6737
4241
3384
1483
747
1753
7301
1936
9676
7194
5561
3656
1210
9238
5762
6855
7610
5097
7958
6766
1643
9958
7894
6771
2938
488
2575
6862
6355
270
561
8611
1417
7025
2392
802
3296
6931
3945
7042
5646
6771
6746
6133
8711
7383
2853
9527
3812
1159
5575
4545
218
6477
9549
4992
2028
3469
6309
5823
5593
8881
2594
1086
2141
7070
6713
4831
707
9427
4662
4998
1512
4802
7449
6784
2346
3279
7807
30
7185
9274
9240
7205
4832
5525
4606
5285
6372
4439
1113
3607
5235
5209
2045
6546
353
8197
6903
1404
1472
270
507
4897
1098
1748
683
4137
568
364
4084
3734
9149
6640
7678
2073
7337
7842
8053
5460
345
8401
8763
9681
7563
8980
156
5857
5525
8712
2591
2288
5541
2283
4710
6182
6568
4902
5609
4459
757
2757
9426
986
329
6020
4670
2899
5787
1284
865
2857
4397
8648
319
3107
1228
4720
6218
1610
1927
365
1664
5992
2372
1531
880
1767
412
3425
9005
3201
994
9410
4144
8657
8682
96
9246
8506
2301
9338
3810
5477
7195
8751
6618
8935
6163
5194
5195
4653
818
5446
860
116
3248
4243
6765
703
3962
5720
9833
4249
3477
5212
2211
6076
897
873
8671
9135
5620
6708
7477
4605
5215
9506
8099
6641
2317
6219
1985
9649
5312
3933
2246
5682
6800
4854
8342
1354
6681
1800
6575
5673
3152
4414
1031
2035
6535
7538
1270
1037
2671
1726
2763
7630
7917
1406
6187
8252
2389
613
1281
4911
7986
588
8966
1415
4847
84
550
333
9555
7875
2508
7901
3304
7959
2560
2418
1570
4181
8350
2902
122
6277
9601
9797
2312
130
6036
7324
7639
8600
6278
1255
1935
2032
9321
3850
2884
5383
6692
9966
1878
942
7650
5052
9460
344
9787
3947
34
9952
404
2705
782
7186
8051
6881
7601
960
579
5074
989
1739
4581
8887
5731
6634
6802
8205
3882
8683
6601
4391
9349
9838
3673
7201
5082
3403
5793
1959
9164
9946
3788
9341
4412
666
9598
5579
5879
7637
8881
8138
505
3646
6307
5167
3709
3470
1163
2064
1038
3974
6922
7058
833
3859
86
6750
1568
1901
8293
6834
2382
6575
4780
3820
8476
2185
978
3307
6694
7506
4256
7219
1603
1839
9657
9917
6183
2492
7362
3752
9942
7084
9641
104
1725
1497
6068
7146
1857
8685
9630
5346
1850
6447
6014
2986
9718
4244
4006
8852
7196
8176
9503
222
5438
3816
1796
8098
8340
5136
7275
687
9876
9557
2501
7633
5557
2313
4557
2670
6557
2631
6004
9660
9191
1710
4023
851
673
9184
5744
6588
5903
506
7558
5495
7865
2997
6842
2163
2211
3060
3867
2964
6063
7956
9647
900
6270
3026
6962
9828
5356
5088
2520
4606
5183
1143
2448
9500
1446
8828
3043
7909
6271
5149
718
178
3267
9833
8006
9426
4889
5694
7979
3044
8772
1711
832
7482
8306
7170
642
5852
6390
415
3855
3921
6643
2788
8031
4174
130
5494
9248
6671
792
4302
8925
5196
4969
7810
1917
3604
431
3339
7654
7498
7674
5497
2132
6752
3941
8498
2317
2862
2351
9913
3645
9908
7321
3674
8732
899
9325
8702
4385
4630
4309
3035
2657
5677
2973
6829
6530
9586
4590
3607
5429
1859
3966
8296
3451
5472
8488
7589
6662
9997
1014
4859
2449
6067
2320
9368
7993
1708
5835
3519
1554
2076
8854
6388
4646
9108
2339
2905
2878
7787
9271
9322
8360
2829
8097
3595
6182
690
2792
7516
6364
3447
4484
6288
7651
1168
3161
3148
2349
1951
2351
6738
3169
8137
9081
5146
2573
4044
3983
5393
4146
4116
8847
8802
6562
124
5612
261
4269
3354
133
2642
7211
6095
2268
9862
3884
5162
5573
455
589
2192
3890
2935
1152
8517
6426
6496
7139
4423
6205
3037
9354
6810
8994
3137
4927
5731
6389
1154
4530
4081
9027
2389
1448
5072
7863
703
8659
2227
3818
5990
5268
5129
5206
358
1906
9806
535
5303
5427
4299
7599
4077
9167
3360
4772
7617
5937
1239
439
2646
6892
1263
1668
2698
5361
3772
4408
8507
3269
794
5325
3138
1301
1140
798
1974
5376
8046
7232
5750
8715
5237
2973
223
8610
8020
556
7600
8445
4206
5556
3947
4111
7723
5015
9610
8935
2504
8809
7692
3803
3145
3245
9257
1632
674
718
391
9429
2637
6764
251
1913
1850
428
2566
7885
4898
1073
2725
2056
212
8940
8423
4370
7294
8522
2888
28
5048
5851
5706
8081
7041
2088
211
6997
3331
3787
6264
5173
9622
422
9861
3470
5496
5687
5178
4865
7330
3744
998
8507
7840
3168
9860
461
8611
3254
5392
743
8006
7010
7117
4255
15
7864
5730
8521
8481
7499
6486
2224
5079
7187
3507
9683
7782
5110
4130
6944
5012
9336
847
7031
8772
7499
3148
3954
3423
1771
2072
861
1419
9369
604
3489
5597
2013
789
3019
1897
2168
7036
3537
7760
4506
6244
416
6915
234
4481
5588
447
4593
3606
976
1826
6853
3323
2122
5272
2389
4971
6970
8993
6773
3302
8769
5920
278
142
7640
7955
4872
8695
5709
6939
5529
8876
9108
8422
1396
7756
2869
8115
1372
2731
3763
3164
3079
9221
1830
2822
1731
4437
8763
8035
8467
978
2776
8913
4806
7334
249
5767
2072
2846
8915
6918
5892
1159
4459
6554
2120
1038
4981
7163
9495
8842
5349
2497
8107
7736
6842
4565
8173
8187
7950
9106
3188
5953
3917
7848
1312
5324
4522
3765
6112
5909
7906
8566
1168
2363
3060
6620
3115
3617
594
2934
3528
9302
7084
8619
9620
6686
9303
2514
6173
2513
299
102
7435
4124
4863
3488
4504
724
4643
5708
4689
2199
5056
4841
6157
5111
1118
9954
9977
4400
3864
1796
276
9360
4595
2500
7641
1282
7314
6517
848
2654
1119
4175
191
1667
4805
8439
8158
5349
1175
1000
3092
4150
6452
9439
8107
9159
6530
8352
8221
6540
9296
1996
2942
8171
9575
6750
5166
4253
4496
5976
1648
3970
3392
160
5882
4691
8141
4248
6133
8036
988
5420
770
7346
4972
7060
5036
7486
4532
2009
7782
5977
8139
6807
1977
8930
1830
15
6997
4093
7317
1768
4714
843
564
1250
9053
9592
7563
1738
947
5667
8987
8072
2962
2466
5892
1970
6205
9720
7951
8750
1760
4572
7252
5153
8907
3452
3629
1095
9465
4597
1412
507
3214
2808
9965
9385
5826
9893
357
1540
6012
3114
4417
385
7998
4522
8216
9401
5804
8046
5939
8355
9219
5552
4114
3710
4410
5865
2951
1832
5818
6154
9356
4415
3008
9320
3564
3879
8827
6638
9508
9417
6387
9015
9724
1942
4072
2029
8232
83
1407
9102
2413
7222
5489
3784
9317
7214
5717
61
4699
6095
4254
9277
4145
747
6260
730
3791
4526
5946
4236
5028
4979
7556
4060
3086
9161
899
1753
9837
7252
8758
1119
9509
790
4937
4007
7885
7888
5453
1203
7960
9732
9227
7501
7794
8499
9341
7647
1451
827
2190
5208
3927
5062
4885
7301
6554
8770
5454
4873
1949
6853
5084
1193
8274
6375
7348
8531
8378
5058
2329
3692
8081
2570
8503
7640
1177
6812
5958
7098
2707
5188
2965
5484
1900
9639
4975
549
9763
4233
7621
2477
8040
8618
584
7322
6296
912
9120
6127
768
1867
2032
9455
3385
8970
9738
92
4491
6776
8099
2763
5329
2266
8637
273
8282
2411
4060
9162
4602
8676
7601
4788
2906
8592
3143
2078
9394
3440
3997
703
4401
1067
6809
5573
445
5658
5538
5934
5851
3598
361
93
3181
8576
8166
3276
5825
8994
9872
8286
187
6646
3631
6435
7231
3370
7848
6942
39
399
939
4563
4326
3954
1679
3595
1115
4451
8946
2066
8386
8305
6362
8270
5023
2898
3114
3143
5516
2685
6767
2441
2469
6490
2179
4646
3653
2431
9207
4719
8864
7494
2197
9590
7176
1938
5142
3950
2241
17
8927
9998
4451
7500
9064
6333
6027
2204
5362
2344
1449
7734
9242
570
4652
5574
4872
5114
2010
8988
6186
6831
7710
4047
978
8738
6671
7818
7031
9192
4829
815
5544
3213
180
1547
3700
8226
7125
684
6710
9119
7650
206
2091
1461
1581
8343
4080
8307
221
3772
6573
3204
9191
1562
2656
287
3844
6456
2111
7991
2743
2833
100
4392
3265
2106
2996
9039
9870
9696
2557
566
7264
5968
216
2195
8451
4009
9396
1601
3776
9231
6007
5175
5442
3256
1426
1256
3238
7350
3077
2287
8763
6273
9961
5958
6584
4643
1572
5395
7716
5221
5922
6481
979
2553
5139
6412
3102
5110
6564
7528
3855
6534
4945
334
4375
5464
3942
1330
6873
1813
5148
654
5543
7822
8862
3572
5680
4858
6889
4272
4688
7322
5879
7744
3716
6665
6716
1515
5963
5701
5567
3489
6917
7004
8199
9077
2359
7447
8885
5179
4998
7357
1953
6555
1366
2389
5765
4170
9208
2820
4852
6817
2381
1530
2619
5473
1215
1795
4915
5493
8571
8080
3143
4227
7382
5109
1528
2198
2512
824
2311
8157
2271
7889
6807
7161
6813
5575
4068
5427
8568
3923
5825
4339
5898
507
2926
1245
3310
1214
2928
8605
1039
2053
7450
8324
120
7535
877
5825
2522
4280
9856
1580
8330
3510
566
939
7581
2841
3475
9879
2838
6354
2199
3966
6636
2685
8757
8621
9571
367
3795
6446
4409
785
5212
8852
6541
5532
1299
2903
7232
7112
1410
6172
9433
3536
8160
836
9857
2489
1656
8048
3394
6422
8905
9422
8726
7097
505
2914
5747
100
2695
5270
5606
8885
1013
9046
8895
6936
2429
8637
7113
6791
6550
4757
1901
413
8631
1699
8799
3157
5355
6985
558
7007
6125
6142
2429
1352
4694
8822
6673
2036
9392
6387
1440
8043
6926
8918
4942
8720
4913
4746
2360
3049
7592
4409
690
9193
9935
1006
4303
2109
4330
3039
4720
1340
5957
4685
3362
5231
6225
4960
4003
5352
7539
3757
5034
4494
581
4838
8394
3931
417
1465
1157
5457
4501
3522
2235
6159
4667
9034
8556
9851
1164
8929
2358
6970
4376
1132
9907
5692
7814
3167
9717
4801
7431
4526
6115
2943
4509
473
8276
2050
5893
9897
1708
3196
7052
8514
6102
98
4249
1765
6792
5323
4356
4534
943
999
4580
9132
3909
8887
4719
7598
9556
4344
1019
2191
1931
2213
1475
2250
8996
6055
793
2849
7578
8701
6867
9343
8586
1844
2593
162
9926
3079
8036
5406
4307
3247
5770
398
6645
4209
4604
1817
4070
6280
8171
4093
8478
6704
9993
5760
7689
5259
9911
9284
2571
5438
6288
9713
1500
8060
2249
140
4664
7386
3598
4366
8924
9978
2379
7599
812
9871
757
3409
1138
4076
5835
2558
2168
2701
6945
190
8447
7096
4848
7328
2524
2525
1092
2629
6480
9927
4042
4410
5688
6262
484
3844
1715
5143
7035
2806
8699
1220
8208
8048
2280
6786
5867
1502
8816
2527
6727
8626
8329
9625
418
4546
2491
9135
6038
6661
3531
2381
8719
8948
7104
6591
1454
7120
9173
6855
1588
5314
8946
168
215
2033
2955
3246
680
7539
2682
7055
3544
478
3128
4989
6384
7445
5733
9909
6486
8429
3616
7865
6538
2847
5834
3081
7874
6326
7159
5057
7137
8856
4840
1460
2347
3200
5519
3029
2917
6
6877
1673
9627
9908
1626
7191
9168
9542
2583
1977
2550
2130
6355
2563
2377
686
888
8840
6465
7686
2166
6779
9022
7788
8337
5568
264
1455
7873
6504
6645
4656
7773
8680
17
7250
6257
5406
8060
6684
3259
4137
3776
228
7741
3584
430
937
6802
368
8860
8774
9415
4442
3649
6752
4127
1480
3411
7971
5866
5953
3379
2338
4044
5298
1205
8551
3314
246
9322
2222
4830
1476
6329
7167
5868
3131
2188
8811
4017
6246
7817
9487
8660
1687
4868
965
5360
7918
7162
8815
8431
7796
3904
3184
1517
1697
5996
7615
2614
4079
21
9008
6655
8339
3632
7272
1981
5843
2715
8335
7699
8581
1252
5187
4189
9030
3205
5007
6564
6298
198
3998
3360
1194
6721
7375
1595
5807
1958
5172
5986
3689
6792
1153
8812
3331
1358
367
9210
1647
5000
9991
9223
5589
5570
7246
4742
2302
2691
9751
1384
2134
9441
5834
1760
4969
8452
377
825
5216
9371
630
8013
6822
6458
2794
3294
2431
5489
8061
8790
2313
340
6059
869
8849
8433
4383
7997
2848
3861
2282
919
5841
2280
9433
7201
318
7402
1551
4953
2742
2834
2598
6571
7283
1927
3135
4899
4606
7670
3962
9967
7886
3022
5614
7185
9103
8373
9592
5041
6088
8665
2767
1633
2684
4436
7604
9257
5824
7215
4179
7851
703
4461
4068
7990
2615
7030
4084
1870
9770
7084
5790
9135
6194
9759
138
9833
4394
239
1040
8465
2427
1752
4362
7826
9475
1913
4663
1290
5175
2501
6795
3526
1257
4983
5343
3016
138
1705
9686
6788
363
6234
3531
9097
9672
3110
8136
5996
4577
9581
6593
6827
9128
4694
3494
9830
5823
4336
9885
2424
9031
1542
7464
812
1430
4959
9108
9426
6331
2372
3824
858
7805
5386
6782
9454
4271
1576
3896
4973
5540
4034
4017
7465
8100
7820
4224
1531
9915
2758
2971
7354
7412
5713
3194
6560
7107
6560
6976
4071
3221
2402
3023
9641
3562
578
9008
4127
5169
9627
997
8036
9526
5255
7503
3612
2528
7384
9689
3622
2222
1959
8109
2157
8213
815
6296
5441
2031
5380
6932
4049
6664
154
3311
1973
2349
9238
3018
1656
8018
7963
9372
3619
3135
5961
1963
8044
1256
9958
7257
9722
6712
1463
5464
107
1719
5231
5103
3853
7738
9252
6152
7315
460
8848
3813
3828
5330
7221
1361
1782
93
197
9801
884
2034
2885
6099
9285
9677
954
7405
9573
7360
5142
8168
7935
4787
5276
9114
9321
5492
2068
7686
3200
3262
7023
2583
7659
235
4683
6637
3110
4947
9995
2342
6186
1450
318
8531
9614
3438
1395
3060
2651
3583
2705
6058
3841
2056
2899
9394
6738
8655
7793
1820
6583
2792
1825
9836
9013
8356
7379
6759
5577
2014
3902
6839
6122
2163
9121
9017
3408
1067
3676
5929
5862
4240
6703
5910
4381
6558
8701
1022
1849
7228
7377
2717
1596
2946
1932
8807
4587
4501
1994
8878
3819
5298
8850
8782
1174
7253
3079
7037
6164
4576
2623
4405
6355
5954
1122
5628
9702
2864
9168
1091
3837
8351
2893
5437
2605
8868
2156
9730
5267
1230
3296
2542
2786
7779
5589
7444
876
4015
3788
4760
1571
847
7323
5595
1726
6470
7014
6108
9582
6965
9143
5334
8832
5262
5955
2811
9150
3881
4666
7466
2846
9237
1764
1354
9058
9441
1335
66
8163
7233
3312
8994
6312
7286
2799
475
6246
2226
28
9228
1816
6982
7378
1567
6525
8390
7056
4456
7800
8738
9467
3505
558
2813
6791
2313
6454
4225
2686
78
9921
9688
1256
980
9063
1824
5238
3233
4096
1653
4933
1886
9104
8940
3009
1532
5522
2395
4311
4028
297
8229
2950
5044
4559
2787
5597
5773
5313
6163
9673
7766
3640
9547
4545
4715
2779
5463
7795
3775
5184
8043
6357
4999
9230
9636
4730
1765
7161
1527
4575
3713
1096
5294
6079
5922
8663
6394
4939
5397
3062
2720
332
8741
8226
7028
1387
2570
7323
8927
8602
3938
7748
4670
2712
9135
78
9634
5400
2853
7349
5232
4429
8698
9703
1449
498
5136
1754
2267
3477
8796
926
7613
5714
415
7415
907
9459
7572
8766
2343
3876
6932
1315
419
293
2146
2117
3041
516
9326
9879
9026
2923
5640
8606
4363
7826
9362
550
1119
7257
596
4749
4106
4153
6779
8268
5916
8769
9870
7610
7508
284
8415
6420
3553
9279
7366
8271
1089
437
9353
3747
8167
4761
1579
71
974
2502
5445
7260
1077
8673
9300
5798
9398
6571
9321
5469
5222
8602
7909
6245
621
6195
7107
8621
4846
6670
8184
9381
3507
5045
9330
3850
4732
2135
2549
1568
8765
2175
1955
9434
8813
5233
870
1515
5721
1249
513
7748
9229
4825
8476
1117
3491
4325
3463
3895
4560
4759
2982
1248
4600
879
9404
1817
7398
5792
1050
6058
975
9385
800
6354
1261
1188
9027
4710
5998
847
4158
6634
9248
5761
1103
5372
7334
4044
9399
5184
3576
3867
3407
2797
2016
5934
5944
1768
1139
3339
9303
7833
7395
4321
1192
3332
2511
8480
5738
7584
3160
4191
8750
7000
8371
5173
4378
9514
8190
8420
4920
4266
4838
2668
1040
2360
8194
1187
6210
1088
1021
8022
6319
2719
1784
3685
2176
748
5493
4959
4940
4178
6192
5650
5288
2811
4361
6222
944
6144
5815
8504
3767
5744
8605
449
4827
836
5323
4330
1885
7669
4936
5962
3014
3922
3569
6283
3595
2324
7111
4983
6413
2724
1968
1388
639
8535
217
3957
7981
2586
3321
2409
7128
8701
5522
4630
8955
4972
4988
612
9822
6774
6771
7748
1964
4426
1551
4393
8436
5767
2952
7153
2469
1543
5594
5633
2402
8654
8144
9013
6930
2900
1765
2311
684
5026
6883
9370
6138
3998
5578
1688
2244
8710
1075
1845
7928
3824
2882
3844
5048
6439
421
3760
5476
7616
3626
8579
912
5476
3365
3889
5284
2655
1637
2270
3895
795
4874
1766
3964
1486
2381
6117
1962
811
7186
4881
9020
6301
5383
1563
4955
3294
3712
956
7107
7696
3719
4129
3293
5100
6970
8123
8738
1648
1062
869
9885
3576
590
2020
9759
5319
9820
7722
8839
4929
8756
6920
6239
3439
3413
2316
5146
6412
5480
3506
2810
8264
7720
298
1789
5573
4676
4200
5280
4133
9553
9270
4421
3097
1309
8581
3678
4319
89
9499
8823
8329
6540
958
7998
7194
8445
343
7133
2972
1899
5918
2078
5204
4718
2363
323
4603
3406
9734
4587
4774
3257
4396
1980
9498
7675
3457
1231
2232
3996
9607
7914
7784
4343
1063
7948
162
6596
9664
7467
1517
1051
476
8
8403
7864
814
7791
4295
9300
1782
3695
6418
8896
2983
4737
9432
182
5557
1973
7523
9032
22
7119
3317
1333
9512
1366
7197
2175
6010
7441
4517
5024
4731
8140
2457
9920
2553
5307
2251
490
239
5567
2539
5751
2928
4749
8637
8010
9690
1195
8359
7371
4482
8072
9365
4896
4110
6967
3001
3828
796
4598
4222
7425
6955
9522
1130
22
1947
6478
6109
2575
1999
9507
1251
370
1996
614
779
8235
6264
3662
3680
9865
5591
6687
527
7344
7321
248
9613
9362
350
3550
3906
80
5781
7574
1276
5774
635
7472
5063
494
1283
4301
1260
836
9818
8950
635
5513
9568
8828
6622
8275
4455
6970
2813
713
8827
9197
4909
7025
9179
942
2189
6229
7153
6304
7865
4561
3197
4449
2080
7620
424
4339
6940
392
7628
4382
711
2310
4515
8366
1598
9597
1563
6967
5582
4076
3027
7433
3190
9687
5841
6084
7965
4132
8797
8078
4966
2989
9925
2479
2807
8596
5441
3615
9304
4113
3089
5296
9654
8245
6471
2852
5996
7800
4250
7469
1815
7205
2948
4947
645
2411
2650
1842
6900
2984
2236
970
6836
4120
4205
5696
5176
1998
8438
3698
4373
3477
4197
1921
418
791
2985
3075
6505
9619
8088
6977
608
135
4278
6648
1342
6934
1847
606
9254
383
7914
8371
8588
1872
4715
1755
3496
6715
6560
9533
6317
5869
9364
9713
3085
7969
5519
8850
301
9537
3479
3745
400
5911
5342
7632
3228
2724
5762
3615
274
7280
5024
134
4429
7665
9954
4526
4209
4414
6369
3850
2965
24
6063
6939
2988
5334
8030
9442
3131
7021
74
8365
6164
7154
894
1710
9870
464
9794
5057
3063
8207
5120
245
7525
6563
1765
5368
4515
7540
5263
5543
6462
9992
8229
4515
961
7032
9889
1235
6353
1201
368
9691
1307
3942
7611
5210
4691
4338
713
97
5078
852
254
5064
8198
3402
2323
8868
4751
5287
1558
9942
1900
421
145
1941
5372
7132
6906
3688
9427
7397
4414
8585
1790
4014
3992
5383
9642
8641
2531
4183
6837
5546
5827
2100
8388
7283
274
6653
8032
2628
4818
4592
2868
4396
5338
9567
7398
9937
7052
7227
4827
5056
2691
1576
3838
5644
6175
8071
6474
4863
8155
5282
7599
5104
8819
2651
4457
7051
8768
4583
1032
7433
9137
6421
3022
6957
6718
2495
6369
6354
5022
8674
6724
4667
7832
2218
8457
1064
9834
8161
4491
8453
5389
6547
6747
2389
3232
2327
8573
70
292
9368
6959
6226
5014
7396
7006
3641
535
5206
9237
1500
6640
7372
3993
3177
8605
7354
3549
644
6785
3541
9296
1478
7391
1110
156
6732
7567
7361
9606
461
6687
1190
971
1387
5714
3575
2772
7818
147
5679
6699
5790
7898
6601
1163
3348
669
6415
904
3977
6369
3432
6362
7681
5432
280
2793
9802
9694
9313
23
2264
7516
956
5564
2494
4360
2589
1565
8834
8625
4397
9990
3572
2391
5888
1876
7100
8922
9172
3899
1152
3038
3334
7962
2338
4283
185
6851
8578
4299
6698
9516
2214
8560
5576
3425
1283
1603
8933
1358
5510
3720
8732
5553
9617
4531
1591
3027
5694
4673
500
5429
9399
4984
8660
849
8844
5186
9003
4788
109
6490
6691
367
5700
6450
838
1841
9211
9418
173
3841
7813
2005
8041
847
3099
7062
1278
6464
4729
9926
2525
9008
6710
446
7191
4343
8618
8363
303
5434
1166
6465
9980
2201
1900
5137
9527
3674
3686
5235
2271
6014
2559
2263
3046
1152
4130
9411
8824
7619
6691
953
4336
107
5036
4195
3861
6709
3730
6340
5080
5954
2964
9446
4772
9766
423
358
9312
2039
469
5240
4663
1183
2367
3502
1838
1909
4923
9884
795
4662
2619
3027
5194
9487
9593
1193
7328
7855
7165
3249
217
3988
5048
2116
3347
1228
6417
2901
2957
8465
8930
6634
4485
8138
2937
9835
7721
1201
5078
4481
6990
994
630
460
5877
1961
1825
3185
8897
9870
6480
8898
9499
240
2895
8939
2484
4578
4801
2200
4374
9227
2719
7876
5752
5895
9079
3744
5374
1803
6999
4836
2520
9977
7297
5784
5172
3239
4151
1241
1396
9828
8316
2339
9699
7049
9275
3945
8065
9553
2119
7114
2191
2594
5882
9323
3552
5052
6611
4510
6196
9874
7095
7490
1114
2681
5054
8001
7278
8093
1241
1980
7510
3552
899
9598
7105
9432
5527
2162
9738
4385
8423
8684
1479
6028
6764
4945
1201
3833
5574
4513
2002
9235
3741
3794
9278
5994
219
4968
7790
5577
2602
483
9977
6100
2856
4291
3435
4772
8818
905
5513
1905
4504
7426
9934
8520
8057
8033
5442
4693
214
9412
9130
8785
7645
5157
4831
6742
2108
3835
1030
4403
9988
5339
7668
1162
6932
7932
2309
5668
2321
4636
3727
2347
4573
9292
7967
9280
839
2455
9009
2937
290
643
7051
5111
8390
4646
3249
254
9230
8325
5619
1807
6503
1303
6893
4992
6188
6426
7810
3229
8325
4614
8621
6454
7551
8953
3774
1044
8265
2404
7277
6884
6916
4958
2813
4122
4235
5402
9049
2941
4573
2655
8794
8897
2817
1224
6956
9296
298
9257
2711
358
5146
76
2168
1515
5155
7066
3122
218
1540
2919
4978
1442
2422
2589
2015
1252
6693
4623
4759
3976
4232
5337
7657
8695
9005
8685
8621
2811
3108
2313
8666
8969
7253
6508
5253
6770
1304
9877
7241
8298
2306
1006
1447
7999
3258
8363
8158
4798
550
2060
5750
4777
9017
5396
9741
4877
9473
4922
3296
2460
9065
4975
9075
1768
7944
4329
2438
5468
9250
6687
8613
4984
1543
4179
4568
8440
1987
3693
2650
847
4995
7959
4393
3963
842
6253
2551
8342
430
322
1607
4749
1862
4307
7758
5465
8942
3184
518
3722
2550
6733
6255
1031
7084
9639
5482
6600
9185
8075
575
1485
4971
7995
7982
4741
9131
9553
1085
3949
5745
7614
9563
9533
7774
4032
6268
7549
1203
6982
5787
4273
2366
890
3729
6365
5883
1749
9996
9004
9215
1727
9238
3812
9584
5190
3744
1076
2848
1503
7396
431
2728
3471
2193
2192
1394
3829
2897
6370
2425
7097
81
6622
1444
7337
927
595
9004
8080
3499
2039
9844
6176
5023
6030
6754
9811
2686
5538
1487
5396
252
1214
495
4616
6649
270
9036
8873
9623
9446
3815
9806
2755
7610
5747
2559
1943
1073
4656
8149
2307
1290
9042
4965
2494
7279
8902
419
2130
8410
958
2307
5924
6941
6469
856
1275
8882
9080
2014
6830
8931
1150
8224
9610
3973
5878
1148
5835
1277
9933
7956
7368
2826
1553
9786
3215
963
8754
9770
659
7470
4354
7884
587
7138
9585
5826
5732
4126
7349
2277
4509
6583
3300
4182
8551
4621
6428
2877
3859
9675
867
3330
3023
521
6064
2055
4169
7996
8030
4871
7546
5537
9465
3106
5099
249
5123
8305
800
4341
2523
3092
9711
5498
3288
5856
7573
8684
8485
931
877
4141
2085
1499
6664
6441
4886
3675
7204
3888
8719
9067
5111
9970
4744
8738
5781
7208
6913
5613
7630
6675
6581
8371
6822
9395
1220
1552
3025
3765
2123
4160
6521
7303
5568
2522
5806
308
4089
7954
6297
5168
1206
7926
6525
8495
1362
6112
9153
5331
3212
7610
2907
8879
5643
5333
7862
6243
1488
2229
3634
2337
5083
8741
4904
1435
6076
6159
5846
1642
6963
3373
5188
4565
5565
5528
3068
5314
1525
6580
6546
1785
4853
2712
8774
4267
8635
8565
7968
5555
8871
4362
16
7702
6084
5683
9787
5168
6434
8160
6121
1823
9668
7629
2690
9768
8854
8115
5301
3784
5078
4227
7034
2827
7507
3768
2555
1501
1518
1038
2191
4776
5975
8146
8855
7122
467
514
7940
7951
8376
2431
2196
7714
366
1742
7938
1712
7131
3987
5417
2060
1624
3552
5408
1551
1249
3169
3829
1643
1814
5813
2427
1856
3076
2718
5222
1859
3406
6867
9243
2815
6021
9516
2932
4527
7967
3304
1494
8780
5787
3257
3899
6960
3446
570
6840
4725
2760
1730
9984
5872
5285
6945
9050
6412
3306
3645
4854
567
6600
7876
8798
9388
8440
5469
9595
6627
7166
4973
1671
4941
2873
4193
3119
2557
6022
1077
6541
1204
9039
6171
1819
4804
2921
8298
24
7620
2838
930
1471
436
8394
4161
3218
34
673
1411
9997
9970
16
8900
7273
1421
1290
3147
6208
2213
5945
1988
9590
6396
8357
181
1954
654
4854
9251
3320
1203
3288
5334
6676
4546
4842
4839
2649
6078
2127
6810
8492
9720
9941
7837
6467
7869
8938
1150
6625
9955
1723
2330
1400
1978
15
6833
3228
2574
6846
860
6504
5252
6632
9366
156
5038
9945
8534
2785
120
5520
2463
257
6143
9975
5829
9911
4242
6814
1286
4468
9839
5512
3242
8904
1920
6180
681
5883
3361
5340
7997
9300
8460
4056
1694
990
2823
4654
8517
459
7232
5549
6573
509
6239
4957
2651
8860
677
6179
1941
9649
8207
2231
2883
1292
8126
5761
81
8018
3646
7859
5148
1321
4925
9973
4741
523
9744
4850
2612
2379
5852
2708
2679
9765
337
4353
1446
9726
5348
1123
4536
85
7884
6826
2130
3449
2025
2228
9799
4012
817
9516
4676
7598
403
582
363
9342
3895
5219
7233
3941
3458
4432
1702
1233
2458
5833
4508
7164
3282
3566
847
860
3265
3889
1889
8758
5563
9068
6258
4913
1132
5726
2657
4527
6884
5298
1343
6859
245
8360
1360
7360
5195
1923
8644
4965
817
5488
6295
3483
2575
3411
9186
2254
754
8845
4762
3915
8490
3972
2187
3654
5409
7339
8865
9002
3121
103
9457
2322
2752
8034
4876
8725
8754
3140
5122
1920
8102
5625
8922
6893
8442
5331
9221
7754
5913
1622
8367
2796
2251
5315
348
7078
7009
5848
6762
1518
2977
9143
8930
2400
473
343
2577
89
60
983
1959
2820
7585
3980
5596
8041
1358
6294
3868
8682
5369
5598
939
4850
7618
3897
5797
6763
3820
5516
2784
5976
7694
4243
109
3499
923
6364
631
3382
8155
6008
8429
6845
738
1128
9330
1488
8112
6206
5348
7429
5539
2928
4459
8541
5873
2463
8278
34
5250
9616
1843
8760
3048
6873
5414
7170
1063
5983
3798
4597
5237
9250
6242
9207
2484
6242
968
8650
9217
1032
4088
291
311
9250
1116
3124
1616
3900
4868
5736
1638
1743
455
5068
9030
2697
8570
9205
8486
3175
7721
7208
9211
6862
544
6121
3408
4384
731
2123
597
3987
9043
4832
5195
1940
2873
1674
4060
2424
1540
3591
6274
3677
5086
6486
9311
8570
1442
7328
5123
5957
9572
2396
2844
8974
9310
9072
4366
7837
4607
8176
268
9061
4584
2822
5576
2126
1338
8195
833
4519
1747
5345
5970
7434
3706
648
5906
7485
3922
6535
1842
5168
4061
8328
8009
9685
4348
5381
8971
4031
1507
8837
1714
1793
3441
8779
1059
5966
4887
3414
5708
3852
1409
609
851
4888
6530
4549
1565
208
8706
3582
7045
6692
1851
9876
6591
1282
9267
2018
3284
9989
2493
8903
9387
9228
8398
980
2544
3943
1821
7843
7201
4830
2926
7352
5429
9339
2552
6878
9650
894
2571
5816
3751
58
5640
6978
3962
3692
6697
830
404
4152
6219
6315
753
5158
3334
7396
350
7171
9624
3233
6574
9329
4842
4840
6080
1900
2973
4214
7698
3928
3843
8438
4513
2810
9773
9478
2707
5733
5312
534
6458
1131
2350
1839
5664
687
8507
9881
96
9963
5410
7476
1039
9861
8215
1653
4502
4660
2370
6305
4910
9657
8436
4996
6361
9807
2954
987
4243
5642
7805
7977
706
4970
8975
4772
8891
6873
6168
5499
296
1427
7869
1541
8008
8478
690
1234
4001
653
1860
6646
2038
5950
5413
5789
6471
7601
830
6701
7242
9555
8424
3222
3828
3505
9828
4732
9288
712
5603
8719
1661
5992
2536
515
5884
1157
3242
7965
7291
7377
9931
5290
1461
7832
494
8725
3153
8201
6221
5601
4739
2695
8523
320
9525
7646
7627
7200
5952
5146
5059
9077
1837
533
2313
9454
45
8669
7742
3862
6167
2956
2754
1278
665
570
9968
6008
1232
7079
6001
8251
2462
5323
9406
511
5347
5184
278
5223
6920
42
6630
7796
7880
9734
5267
8361
8827
2445
5957
7166
2251
615
7207
9780
7443
8413
5614
2567
7800
6956
2222
6292
3896
1834
3877
8976
7582
2111
3954
6126
6109
3075
791
6678
9420
9711
294
9293
8921
7379
628
8922
807
5840
9799
7806
1358
7938
3493
5799
5437
3388
369
1598
4355
2800
8937
8455
3265
8762
3466
2864
241
9528
3082
64
8874
9973
384
7860
6498
4233
8555
5073
9976
8729
3296
1088
5524
9008
1275
1956
7437
1339
5175
3345
8284
6280
6191
4064
346
5346
7328
4404
7124
7472
6045
8035
9091
4400
1345
8914
1271
1865
8475
3434
2672
3233
546
9157
5253
8062
6747
6076
6159
7632
6021
3273
9390
147
625
4634
6115
2841
6397
8263
2664
9040
9009
6635
9901
1617
5935
2696
8017
6821
4234
407
5504
6039
2050
6931
8434
8594
4078
1332
8843
5425
4139
2906
2900
3759
1607
6051
676
6302
6971
6461
273
5944
1837
2640
2904
5280
6546
4276
9112
9842
6547
1520
5943
3889
3970
4909
413
2696
231
9246
9647
6897
7945
7537
476
4472
5686
3879
8569
372
7652
2705
407
373
4223
5092
8989
8172
6425
1385
1895
827
2661
4950
8208
2998
2049
2144
6938
8823
83
7901
9261
7850
398
7332
9612
707
236
4415
4100
4017
4480
383
5378
5722
5208
2811
7671
1216
3929
6820
2781
5723
1253
3351
2484
3679
4242
5044
607
8913
7574
9821
3262
5068
429
6857
740
3419
8578
1598
3362
2861
1230
2555
2587
3726
7261
5498
5631
1745
1338
3601
1674
4896
1741
9770
8978
6075
7763
3656
4412
3182
1180
6847
6886
9332
3960
1864
8633
6075
8626
2365
6983
2328
4446
9811
9113
9871
7407
6577
7798
9065
796
6265
5096
8338
416
5445
1302
8887
2779
503
8153
8491
127
9523
919
4124
895
6826
1447
2365
6185
3746
7505
2458
80
8469
1431
8606
8858
3269
5063
3180
9555
871
3990
9067
5810
5617
9555
3535
8325
242
113
1644
7724
5330
4858
5389
5685
4329
6952
7306
7409
187
785
3824
9488
5247
9510
6776
9062
1702
6607
2086
5409
3101
178
9218
464
3859
9078
617
4642
3756
8278
1447
2821
6418
5166
7365
1357
5403
3654
2449
9942
5702
259
8359
3509
9633
6902
1542
9203
6861
500
5291
5510
6477
3588
845
780
4641
1879
4835
6860
248
2123
5605
5366
1357
5064
8224
7359
2394
3973
9903
3211
4561
779
6952
5774
1160
8134
7533
8320
3616
9911
4584
3276
174
2565
6524
1545
1632
6194
7008
7279
6916
1292
3781
5876
8570
8237
3983
5934
5129
3527
9373
9686
2035
974
7790
1778
2947
5010
7995
3381
459
4938
3784
7623
6628
4563
4034
2081
8073
4019
6838
6738
8163
1840
9191
7299
8467
4899
3367
9721
7860
6911
433
7225
5970
1570
7249
1450
8021
2295
606
5894
5099
9880
7952
9482
9566
4320
3117
2312
2450
487
669
1793
9915
6386
2658
1793
1578
1337
6940
5151
2115
1711
788
9704
2199
9221
6965
5652
2826
6641
8911
6302
6197
3582
8255
8333
5037
4651
4212
6806
7134
8227
2690
1235
1569
9429
3296
2189
371
723
559
2824
7988
4547
7780
9756
3889
3715
6609
1875
5023
24
8820
3454
3903
9995
9573
2669
6145
6542
7593
860
9049
8610
6030
8586
8152
9673
3743
8648
5252
9184
7229
6410
9058
3543
6909
1657
4132
613
4849
9057
5830
1770
5486
4764
2840
9621
4611
9251
4535
6545
7010
3578
3111
9199
8155
2128
8600
9044
3054
5212
755
3562
4452
5642
2531
2717
6396
2257
6263
4591
1369
9331
61
5278
9943
6453
2904
1614
9221
2134
5978
6042
1694
1224
2637
7203
3815
6548
4861
1581
3204
4673
6888
8435
6501
7365
8478
780
8548
9215
9819
6753
9819
4608
6309
9361
7704
6634
7165
5178
9996
2480
1359
3767
8780
1076
8881
2854
2249
4373
5099
4763
9970
5611
7904
1110
926
3233
2655
5710
1332
5461
4718
5380
2385
4047
1714
6975
3619
7747
7673
1799
5236
2453
4782
6134
3199
9943
4963
8192
7737
7088
5085
4926
5599
9205
9658
668
887
7474
8791
3941
5393
3218
7946
5548
5767
7345
9345
6759
1534
8220
704
9303
6713
4373
7740
8296
4454
1622
775
1958
1839
5061
6777
2414
3161
2759
932
1289
5347
2975
1068
9053
6894
3705
2462
2398
4566
3141
9026
5045
2458
384
9884
8549
5987
6051
3974
4522
4936
1319
5336
2386
4763
7213
548
1210
1627
8579
2127
4132
3390
1401
6275
4588
6731
1510
8357
1523
5274
8603
1022
5538
4724
3893
6797
2190
2750
3529
6901
9720
678
759
1390
5031
6328
2353
3708
2640
700
3533
5725
7103
2313
4056
2789
706
4797
3522
8803
5010
4233
8057
6391
3687
5243
9817
8080
454
1876
5762
155
8484
6804
6379
9568
2521
1040
1931
8575
9557
6898
9167
9404
2751
1554
7178
5240
7623
46
9047
7325
5479
1486
9553
3485
